1 10 20
100 200 125
201 210 89
900 1000 174
256318 257167 345
726717 726984 349
315115 315185 340
583317 584208 434
223803 224316 262
745625 746475 349
867495 867953 326
946108 946254 352
795913 796107 468
543050 543164 315
887720 888071 401
433108 434033 343
67579 68456 312
874844 875772 432
511493 512074 470
459589 460290 307
368179 368803 317
596779 597634 341
933304 933737 339
935946 936844 339
632273 632485 328
61062 61977 286
885019 885718 370
656632 657084 429
151824 152646 308
118140 118874 336
993604 994244 246
187872 188142 316
24393 24734 264
832965 833931 357
958845 958922 308
998711 998848 228
849536 849640 207
278628 278748 283
715665 715726 243
823659 824485 375
470372 470543 276
14051 14248 196
12391 13236 263
480015 480439 351
802084 802554 388
126123 126911 331
77086 77175 201
649631 649793 266
71791 72169 250
932485 932995 370
304788 305309 278
351675 351928 348
990057 990638 321
718846 719783 318
131276 131796 269
91684 92199 284
689001 689292 336
113528 113950 292
524703 525007 302
933946 934744 414
439735 439891 356
974637 975077 334
775220 775920 331
984005 984481 352
484629 485065 320
902040 902409 308
498425 499118 289
8838 9379 260
514605 514901 364
720058 720891 411
35263 35483 280
194987 195037 342
597470 597736 372
568554 568566 209
672714 673610 336
285697 286652 283
610001 610240 341
449819 450375 369
365394 366060 335
567849 568437 315
472263 472819 338
349434 349450 229
867907 868446 339
465233 465540 369
735398 735431 243
294028 294934 296
479558 480475 351
714451 714536 274
326859 327848 322
958591 959419 308
798795 798974 300
371499 371565 286
494826 495466 320
690767 691027 336
190463 190961 285
125810 126141 225
267273 267676 314
54291 55236 260
864751 864865 326
671317 671750 323
958932 959900 352
268492 268496 133
772412 772886 393
118812 119246 318
546120 546340 284
152525 152683 233
711631 711633 168
677657 678140 336
937172 937492 277
428755 429484 281
348638 349045 260
119631 119835 305
466945 467500 307
513457 513752 258
60922 61694 335
730463 730871 380
137643 138416 313
145752 145900 264
786654 787510 362
772338 773236 393
429930 430420 312
473448 474400 382
307668 308006 309
663426 663819 292
723055 724048 349
463197 463449 232
627117 628049 341
386215 387047 330
625498 625537 186
736150 736856 318
393646 394262 361
850209 850798 357
769329 770285 393
207012 207227 311
519700 520096 364
206265 206617 342
871296 871564 282
125179 125499 318
442311 442651 294
335623 336330 366
106344 106458 248
396357 396882 299
686478 687298 398
25425 26097 233
94068 94183 284
285860 286297 283
667993 668175 292
543249 543974 359
59312 59779 273
869467 870328 388
902320 902610 383
621975 622050 279
950912 951278 414
853544 853806 269
54871 55536 260
74007 74214 263
587296 587384 222
612821 613029 310
494806 494965 214
534648 535620 315
109432 109748 292
573004 573733 359
300193 300579 340
76181 76912 307
313358 313899 309
295140 295841 265
861141 861499 282
661935 662269 248
650262 650869 341
872401 873064 326
536267 536303 271
706389 707331 274
944852 945607 352
512701 513424 333
12588 13340 276
202099 203076 342
138492 139224 300
403326 403748 343
313712 314428 309
170001 170705 290
599344 600145 372
241478 242206 275
624914 624963 279
417374 417593 343
817472 818203 344
27416 27949 259
356469 356534 317
836510 837384 344
511678 511788 302
990607 990916 290
126341 127096 331
737880 738271 349
466503 467049 369
767046 767860 318
589076 589749 297
646672 647278 292
173681 174680 334
285519 286209 283
691719 692442 442
385919 386479 330
214591 215081 249
930701 931016 370
415657 416430 387
